{
	"developers": {
	    "kos": "E:\\XAMPPnew\\htdocs\\WD\\",
		"ilyaB": "/Applications/MAMP/htdocs/WD/"

    },
    "upload": {
	    "host"	: "194.58.90.100",
	    "port"	: 22,
	    "dest"	: "/var/www/development/www/current/WD/",
	    "log"	: "root",
	    "pass"	: "nrYV61SArqx0_m"
	}
}