<?xml version="1.0" encoding="UTF-8" standalone="no"?>
<!-- Created with Inkscape (http://www.inkscape.org/) -->

<svg
   xmlns:dc="http://purl.org/dc/elements/1.1/"
   xmlns:cc="http://creativecommons.org/ns#"
   xmlns:rdf="http://www.w3.org/1999/02/22-rdf-syntax-ns#"
   xmlns:svg="http://www.w3.org/2000/svg"
   xmlns="http://www.w3.org/2000/svg"
   xmlns:sodipodi="http://sodipodi.sourceforge.net/DTD/sodipodi-0.dtd"
   xmlns:inkscape="http://www.inkscape.org/namespaces/inkscape"
   id="svg2"
   version="1.1"
   inkscape:version="0.91 r13725"
   xml:space="preserve"
   width="116.25"
   height="118.75"
   viewBox="0 0 116.25 118.75"
   sodipodi:docname="take-action.svg"><metadata
     id="metadata8"><rdf:RDF><cc:Work
         rdf:about=""><dc:format>image/svg+xml</dc:format><dc:type
           rdf:resource="http://purl.org/dc/dcmitype/StillImage" /><dc:title></dc:title></cc:Work></rdf:RDF></metadata><defs
     id="defs6"><clipPath
       clipPathUnits="userSpaceOnUse"
       id="clipPath16"><path
         d="m 0,348.667 678,0 L 678,0 0,0 0,348.667 Z"
         id="path18"
         inkscape:connector-curvature="0" /></clipPath></defs><sodipodi:namedview
     pagecolor="#ffffff"
     bordercolor="#666666"
     borderopacity="1"
     objecttolerance="10"
     gridtolerance="10"
     guidetolerance="10"
     inkscape:pageopacity="0"
     inkscape:pageshadow="2"
     inkscape:window-width="1110"
     inkscape:window-height="726"
     id="namedview4"
     showgrid="false"
     inkscape:zoom="0.45899705"
     inkscape:cx="125.83312"
     inkscape:cy="16.87488"
     inkscape:window-x="293"
     inkscape:window-y="115"
     inkscape:window-maximized="0"
     inkscape:current-layer="g10"
     fit-margin-top="0"
     fit-margin-left="0"
     fit-margin-right="0"
     fit-margin-bottom="0" /><g
     id="g10"
     inkscape:groupmode="layer"
     inkscape:label="Vector Smart Object1"
     transform="matrix(1.25,0,0,-1.25,-297.91687,319.792)"><g
       id="g12"
       style="fill:#7eb42b;fill-opacity:1"><g
         id="g14"
         clip-path="url(#clipPath16)"
         style="fill:#7eb42b;fill-opacity:1"><g
           id="g20"
           transform="translate(269.2345,244.8736)"
           style="fill:#7eb42b;fill-opacity:1"><path
             d="m 0,0 c -0.09,-0.016 -0.195,-0.026 -0.31,-0.031 -0.031,-0.001 -0.06,-0.009 -0.091,-0.009 -0.008,0 -0.016,0.002 -0.023,0.002 -0.015,0 -0.025,-0.002 -0.04,-0.002 -3.283,0 -6.437,-5.949 -6.437,-7.469 0,-0.007 -0.002,-0.01 -0.002,-0.016 0,-0.005 0.002,-0.01 0.002,-0.015 0,-0.138 -0.019,-0.271 -0.041,-0.403 -10e-4,-0.007 -10e-4,-0.019 -0.002,-0.026 -0.204,-1.176 -1.223,-2.071 -2.457,-2.071 -0.995,0 -1.846,0.585 -2.249,1.425 -0.137,0.087 -0.24,0.382 -0.249,1.048 0,0.009 -0.002,0.018 -0.002,0.027 0,0.005 10e-4,0.009 10e-4,0.014 0,0.017 -10e-4,0.03 -10e-4,0.048 0,6.755 6.762,12.438 11,12.438 0.136,0 0.243,-0.009 0.359,-0.015 0.047,0.003 0.092,0.015 0.141,0.015 1.38,0 2.5,-1.12 2.5,-2.5 C 2.099,1.216 1.189,0.193 0,0 m 48.099,-12.04 c 0,21.751 -15.054,23 -18,23 -7.23,0 -12.706,-2.805 -15,-8 -2.295,5.195 -7.77,8 -15,8 -2.946,0 -18,-1.249 -18,-23 0,-21.752 33,-37 33,-37 0,0 33,15.248 33,37 m 7,-23 c -0.289,-2.899 -2,-20 -2,-20 l -10,-6 c 0,0 -3.822,-1.954 -6,1 l 9,7 c 0,0 5.821,3.96 1,9 l -25,-18 -3,-19 20,-3 1,8 c 0,0 -0.273,2.071 1,3 1.273,0.928 19,13 19,13 l 2,29 c 0,0 -6.408,1.939 -7,-4 m -71,-9 c -4.822,-5.04 1,-9 1,-9 l 9,-7 c -2.179,-2.954 -6,-1 -6,-1 l -10,6 c 0,0 -1.711,17.101 -2,20 -0.593,5.939 -7,4 -7,4 l 2,-29 c 0,0 17.727,-12.072 19,-13 1.273,-0.929 1,-3 1,-3 l 1,-8 20,3 -3,19 -25,18 z"
             style="fill:#7eb42b;fill-opacity:1;fill-rule:evenodd;stroke:none"
             id="path22"
             inkscape:connector-curvature="0" /></g></g></g></g></svg>