<?xml version="1.0" encoding="utf-8"?>
<!-- Generator: Adobe Illustrator 18.1.1, SVG Export Plug-In . SVG Version: 6.00 Build 0)  -->
<svg version="1.0" id="Layer_1" xmlns="http://www.w3.org/2000/svg" xmlns:xlink="http://www.w3.org/1999/xlink" x="0px" y="0px"
	 viewBox="0 0 449.3 140.5" enable-background="new 0 0 449.3 140.5" xml:space="preserve">
<g>
	<g>
		<path fill="#FFFFFF" d="M28.7,73.6H1.7v67h25.1c27.4,0,41.8-8.7,41.8-33.9C68.5,81.5,53.1,73.6,28.7,73.6z M28,124.7h-4.6V89.5
			h5.3c13.4,0,17.9,5.2,17.9,17.5C46.5,120.3,41.3,124.7,28,124.7z"/>
		<polygon fill="#FFFFFF" points="133.9,140.5 133.9,125 97.6,125 97.6,113.5 118.2,113.5 118.2,98.1 97.6,98.1 97.6,89.2 
			133.1,89.2 133.1,73.6 74.6,73.6 74.6,140.5 		"/>
		<polygon fill="#FFFFFF" points="197.9,140.5 197.9,124.4 166.5,124.4 166.5,73.6 141.8,73.6 141.8,140.5 		"/>
		<rect x="205.1" y="73.6" fill="#FFFFFF" width="26.9" height="67"/>
		<path fill="#FFFFFF" d="M314.6,73.6h-24.1l-5.7,18c-2.7,8.4-6.5,21.9-7.9,28.3c-1.5-6.4-5.2-20-7.9-28.3l-5.7-18h-24.3l26.9,67
			h21.9L314.6,73.6z"/>
		<polygon fill="#FFFFFF" points="378,140.5 378,125 343,125 343,113.5 363.8,113.5 363.8,98.1 343,98.1 343,89.2 377.2,89.2 
			377.2,73.6 320.8,73.6 320.8,140.5 		"/>
		<path fill="#FFFFFF" d="M426.4,95.9c0,4.8-2.8,7.5-9.7,7.5h-10.6V88.7H417C423.8,88.7,426.4,91.7,426.4,95.9 M449.3,140.5
			L433.8,115c8.5-3.3,13.9-9.6,13.9-19.6c0-15.9-12.1-21.8-30.2-21.8h-34.6v67h23.1V118h6.6l12.6,22.6H449.3z"/>
	</g>
	<g>
		<path fill="#FFFFFF" d="M447.3,68.2V1.1h-20.4v18.3c0,5.5,0.1,14.4,0.6,17.4c-1.6-2.8-7-11.7-10.3-15.8l-16-19.9h-17.8v67.2h20.4
			V47.7c0-5.5-0.1-14.4-0.6-17.4c1.9,3,7.1,11.6,10.3,15.7l17.4,22.2H447.3z"/>
		<path fill="#FFFFFF" d="M163.4,1.1h-20.9l-2,11.2c-1.7,9.5-3.7,21.2-4.4,29.2c-0.8-7.9-3.2-19.5-5.5-29.1l-2.5-11.3h-18.8
			l-2.5,11.3c-2.3,9.6-4.6,21.2-5.5,29.1c-0.7-8-2.7-19.7-4.4-29.2l-2-11.2H73.8l17.6,67.2H110l3.4-14.6c2.4-10.4,4.6-22.9,5.1-27.8
			c0.4,4.9,2.6,17.5,5.1,27.8l3.4,14.6h18.9L163.4,1.1z"/>
		<path fill="#FFFFFF" d="M313.9,68.2V1.1h-18.5L286.3,19c-4.6,9.1-8,16.4-9.3,20.2c-1.2-3.7-4.8-11.6-9.3-20.2l-9.1-17.9h-18.7
			v67.2h19.2v-16c0-6.6-0.1-12.7-0.4-17.8c2.2,5,6,12.8,8.5,17.6l9.7,18.6l9.7-18.6c2.5-4.8,6.3-12.6,8.5-17.6
			c-0.3,5.2-0.4,11.2-0.4,17.8v16H313.9z"/>
		<path fill="#FFFFFF" d="M198.5,0c-20.4,0-34.8,12.4-34.8,34.7c0,22.4,14.2,34.5,34.6,34.5c20.4,0,34.8-12.4,34.8-34.7
			S218.9,0,198.5,0z M198.5,53.1c-8.4,0-13.3-6.4-13.3-18.5s4.7-18.3,13.1-18.3c8.4,0,13.3,6.4,13.3,18.5
			C211.6,46.8,206.9,53.1,198.5,53.1z"/>
		<polygon fill="#FFFFFF" points="376.2,68.2 376.2,52.6 342.8,52.6 342.8,41.1 363.7,41.1 363.7,25.6 342.8,25.6 342.8,16.7 
			375.5,16.7 375.5,1.1 321.5,1.1 321.5,68.2 		"/>
	</g>
	<polygon fill="#FEBB12" points="48.2,1.1 0,1.1 0,21.3 34.9,21.3 2.4,53.8 16.8,68.2 48.2,36.8 48.2,68.2 68.5,68.2 68.5,21.3 
		68.5,1.1 	"/>
</g>
</svg>
